('K:\\PROGRAMMING\\itm-nnl\\ITM-Memory SceneEncoding\\dist\\generate_slides.exe',
 True,
 False,
 False,
 None,
 None,
 False,
 False,
 u'<?xml version="1.0" encoding="UTF-8" standalone="yes"?><assembly manifestVersion="1.0" xmlns="urn:schemas-microsoft-com:asm.v1"><assemblyIdentity name="generate_slides" processorArchitecture="x86" type="win32" version="1.0.0.0"/><dependency><dependentAssembly><assemblyIdentity name="Microsoft.VC90.CRT" processorArchitecture="x86" publicKeyToken="1fc8b3b9a1e18e3b" type="win32" version="9.0.21022.8"/><compatibility xmlns="urn:schemas-microsoft-com:compatibility.v1"/></dependentAssembly></dependency><compatibility xmlns="urn:schemas-microsoft-com:compatibility.v1"><application><supportedOS Id="{1f676c76-80e1-4239-95bb-83d0f6d0da78}"/><supportedOS Id="{4a2f28e3-53b9-4441-ba9c-d69d4a4a6e38}"/><supportedOS Id="{e2011457-1546-43c5-a5fe-008deee3d3f0}"/><supportedOS Id="{35138b9a-5d96-4fbd-8e2d-a2440225f93a}"/><supportedOS Id="{8e0f7a12-bfb3-4fe8-b9a5-48fd50a15a9a}"/></application></compatibility></assembly>',
 True,
 'generate_slides.pkg',
 [('out00-PYZ.pyz',
   'K:\\PROGRAMMING\\itm-nnl\\ITM-Memory SceneEncoding\\build\\generate_slides\\out00-PYZ.pyz',
   'PYZ'),
  ('struct', 'm:\\software_programs\\python27\\lib\\struct.pyc', 'PYMODULE'),
  ('pyimod01_os_path',
   'm:\\software_programs\\python27\\lib\\site-packages\\PyInstaller\\loader\\pyimod01_os_path.pyc',
   'PYMODULE'),
  ('pyimod02_archive',
   'm:\\software_programs\\python27\\lib\\site-packages\\PyInstaller\\loader\\pyimod02_archive.pyc',
   'PYMODULE'),
  ('pyimod03_importers',
   'm:\\software_programs\\python27\\lib\\site-packages\\PyInstaller\\loader\\pyimod03_importers.pyc',
   'PYMODULE'),
  ('pyiboot01_bootstrap',
   'm:\\software_programs\\python27\\lib\\site-packages\\PyInstaller\\loader\\pyiboot01_bootstrap.py',
   'PYSOURCE'),
  ('generate_slides',
   'K:\\PROGRAMMING\\itm-nnl\\ITM-Memory SceneEncoding\\generate_slides.py',
   'PYSOURCE'),
  (u'Microsoft.VC90.CRT.manifest',
   u'C:\\Windows\\WinSxS\\Manifests\\x86_microsoft.vc90.crt_1fc8b3b9a1e18e3b_9.0.21022.123_none_34ecb028277b0621.manifest',
   'BINARY'),
  (u'msvcr90.dll',
   u'C:\\Windows\\WinSxS\\x86_microsoft.vc90.crt_1fc8b3b9a1e18e3b_9.0.21022.123_none_34ecb028277b0621\\msvcr90.dll',
   'BINARY'),
  (u'msvcp90.dll',
   u'C:\\Windows\\WinSxS\\x86_microsoft.vc90.crt_1fc8b3b9a1e18e3b_9.0.21022.123_none_34ecb028277b0621\\msvcp90.dll',
   'BINARY'),
  (u'msvcm90.dll',
   u'C:\\Windows\\WinSxS\\x86_microsoft.vc90.crt_1fc8b3b9a1e18e3b_9.0.21022.123_none_34ecb028277b0621\\msvcm90.dll',
   'BINARY'),
  ('python27.dll', 'm:\\software_programs\\python27\\python27.dll', 'BINARY'),
  ('unicodedata',
   'm:\\software_programs\\python27\\DLLs\\unicodedata.pyd',
   'EXTENSION'),
  ('_ctypes',
   'm:\\software_programs\\python27\\DLLs\\_ctypes.pyd',
   'EXTENSION'),
  ('_ssl', 'm:\\software_programs\\python27\\DLLs\\_ssl.pyd', 'EXTENSION'),
  ('win32evtlog',
   'm:\\software_programs\\python27\\lib\\site-packages\\win32\\win32evtlog.pyd',
   'EXTENSION'),
  ('win32api',
   'm:\\software_programs\\python27\\lib\\site-packages\\win32\\win32api.pyd',
   'EXTENSION'),
  ('_hashlib',
   'm:\\software_programs\\python27\\DLLs\\_hashlib.pyd',
   'EXTENSION'),
  ('_socket',
   'm:\\software_programs\\python27\\DLLs\\_socket.pyd',
   'EXTENSION'),
  ('select',
   'm:\\software_programs\\python27\\DLLs\\select.pyd',
   'EXTENSION'),
  ('bz2', 'm:\\software_programs\\python27\\DLLs\\bz2.pyd', 'EXTENSION'),
  ('pywintypes27.dll',
   'm:\\software_programs\\python27\\lib\\site-packages\\pywin32_system32\\pywintypes27.dll',
   'BINARY'),
  ('generate_slides.exe.manifest',
   'K:\\PROGRAMMING\\itm-nnl\\ITM-Memory SceneEncoding\\build\\generate_slides\\generate_slides.exe.manifest',
   'BINARY'),
  ('pyi-windows-manifest-filename generate_slides.exe.manifest',
   '',
   'OPTION')],
 [],
 False,
 False,
 1518525879L,
 [('run.exe',
   'm:\\software_programs\\python27\\lib\\site-packages\\PyInstaller\\bootloader\\Windows-32bit\\run.exe',
   'EXECUTABLE')])
