('K:\\PROGRAMMING\\itm-nnl\\ITM-Memory SceneEncoding\\build\\generate_slides\\out00-PKG.pkg',
 {'BINARY': 1,
  'DATA': 1,
  'EXECUTABLE': 1,
  'EXTENSION': 1,
  'PYMODULE': 1,
  'PYSOURCE': 1,
  'PYZ': 0},
 [('out00-PYZ.pyz',
   'K:\\PROGRAMMING\\itm-nnl\\ITM-Memory SceneEncoding\\build\\generate_slides\\out00-PYZ.pyz',
   'PYZ'),
  ('struct', 'm:\\software_programs\\python27\\lib\\struct.pyc', 'PYMODULE'),
  ('pyimod01_os_path',
   'm:\\software_programs\\python27\\lib\\site-packages\\PyInstaller\\loader\\pyimod01_os_path.pyc',
   'PYMODULE'),
  ('pyimod02_archive',
   'm:\\software_programs\\python27\\lib\\site-packages\\PyInstaller\\loader\\pyimod02_archive.pyc',
   'PYMODULE'),
  ('pyimod03_importers',
   'm:\\software_programs\\python27\\lib\\site-packages\\PyInstaller\\loader\\pyimod03_importers.pyc',
   'PYMODULE'),
  ('pyiboot01_bootstrap',
   'm:\\software_programs\\python27\\lib\\site-packages\\PyInstaller\\loader\\pyiboot01_bootstrap.py',
   'PYSOURCE'),
  ('generate_slides',
   'K:\\PROGRAMMING\\itm-nnl\\ITM-Memory SceneEncoding\\generate_slides.py',
   'PYSOURCE'),
  (u'Microsoft.VC90.CRT.manifest',
   u'C:\\Windows\\WinSxS\\Manifests\\x86_microsoft.vc90.crt_1fc8b3b9a1e18e3b_9.0.21022.123_none_34ecb028277b0621.manifest',
   'BINARY'),
  (u'msvcr90.dll',
   u'C:\\Windows\\WinSxS\\x86_microsoft.vc90.crt_1fc8b3b9a1e18e3b_9.0.21022.123_none_34ecb028277b0621\\msvcr90.dll',
   'BINARY'),
  (u'msvcp90.dll',
   u'C:\\Windows\\WinSxS\\x86_microsoft.vc90.crt_1fc8b3b9a1e18e3b_9.0.21022.123_none_34ecb028277b0621\\msvcp90.dll',
   'BINARY'),
  (u'msvcm90.dll',
   u'C:\\Windows\\WinSxS\\x86_microsoft.vc90.crt_1fc8b3b9a1e18e3b_9.0.21022.123_none_34ecb028277b0621\\msvcm90.dll',
   'BINARY'),
  ('python27.dll', 'm:\\software_programs\\python27\\python27.dll', 'BINARY'),
  ('unicodedata',
   'm:\\software_programs\\python27\\DLLs\\unicodedata.pyd',
   'EXTENSION'),
  ('_ctypes',
   'm:\\software_programs\\python27\\DLLs\\_ctypes.pyd',
   'EXTENSION'),
  ('_ssl', 'm:\\software_programs\\python27\\DLLs\\_ssl.pyd', 'EXTENSION'),
  ('win32evtlog',
   'm:\\software_programs\\python27\\lib\\site-packages\\win32\\win32evtlog.pyd',
   'EXTENSION'),
  ('win32api',
   'm:\\software_programs\\python27\\lib\\site-packages\\win32\\win32api.pyd',
   'EXTENSION'),
  ('_hashlib',
   'm:\\software_programs\\python27\\DLLs\\_hashlib.pyd',
   'EXTENSION'),
  ('_socket',
   'm:\\software_programs\\python27\\DLLs\\_socket.pyd',
   'EXTENSION'),
  ('select',
   'm:\\software_programs\\python27\\DLLs\\select.pyd',
   'EXTENSION'),
  ('bz2', 'm:\\software_programs\\python27\\DLLs\\bz2.pyd', 'EXTENSION'),
  ('pywintypes27.dll',
   'm:\\software_programs\\python27\\lib\\site-packages\\pywin32_system32\\pywintypes27.dll',
   'BINARY'),
  ('generate_slides.exe.manifest',
   'K:\\PROGRAMMING\\itm-nnl\\ITM-Memory SceneEncoding\\build\\generate_slides\\generate_slides.exe.manifest',
   'BINARY'),
  ('pyi-windows-manifest-filename generate_slides.exe.manifest',
   '',
   'OPTION')],
 False,
 False,
 False)
