(['K:\\PROGRAMMING\\itm-nnl\\ITM-Memory SceneEncoding\\generate_slides.py'],
 ['K:\\PROGRAMMING\\itm-nnl\\ITM-Memory SceneEncoding',
  'K:\\PROGRAMMING\\itm-nnl\\ITM-Memory SceneEncoding'],
 ['codecs'],
 [],
 [],
 [],
 False,
 False,
 '2.7.10 (default, May 23 2015, 09:40:32) [MSC v.1500 32 bit (Intel)]',
 [('generate_slides',
   'K:\\PROGRAMMING\\itm-nnl\\ITM-Memory SceneEncoding\\generate_slides.py',
   'PYSOURCE')],
 [('encodings.aliases',
   'm:\\software_programs\\python27\\lib\\encodings\\aliases.py',
   'PYMODULE'),
  ('encodings',
   'm:\\software_programs\\python27\\lib\\encodings\\__init__.py',
   'PYMODULE'),
  ('encodings.idna',
   'm:\\software_programs\\python27\\lib\\encodings\\idna.py',
   'PYMODULE'),
  ('re', 'm:\\software_programs\\python27\\lib\\re.py', 'PYMODULE'),
  ('sre_constants',
   'm:\\software_programs\\python27\\lib\\sre_constants.py',
   'PYMODULE'),
  ('sre', 'm:\\software_programs\\python27\\lib\\sre.py', 'PYMODULE'),
  ('warnings',
   'm:\\software_programs\\python27\\lib\\warnings.py',
   'PYMODULE'),
  ('types', 'm:\\software_programs\\python27\\lib\\types.py', 'PYMODULE'),
  ('linecache',
   'm:\\software_programs\\python27\\lib\\linecache.py',
   'PYMODULE'),
  ('os', 'm:\\software_programs\\python27\\lib\\os.py', 'PYMODULE'),
  ('subprocess',
   'm:\\software_programs\\python27\\lib\\subprocess.py',
   'PYMODULE'),
  ('pickle', 'm:\\software_programs\\python27\\lib\\pickle.py', 'PYMODULE'),
  ('doctest', 'm:\\software_programs\\python27\\lib\\doctest.py', 'PYMODULE'),
  ('collections',
   'm:\\software_programs\\python27\\lib\\collections.py',
   'PYMODULE'),
  ('dummy_thread',
   'm:\\software_programs\\python27\\lib\\dummy_thread.py',
   'PYMODULE'),
  ('heapq', 'm:\\software_programs\\python27\\lib\\heapq.py', 'PYMODULE'),
  ('keyword', 'm:\\software_programs\\python27\\lib\\keyword.py', 'PYMODULE'),
  ('_abcoll', 'm:\\software_programs\\python27\\lib\\_abcoll.py', 'PYMODULE'),
  ('abc', 'm:\\software_programs\\python27\\lib\\abc.py', 'PYMODULE'),
  ('_weakrefset',
   'm:\\software_programs\\python27\\lib\\_weakrefset.py',
   'PYMODULE'),
  ('tempfile',
   'm:\\software_programs\\python27\\lib\\tempfile.py',
   'PYMODULE'),
  ('io', 'm:\\software_programs\\python27\\lib\\io.py', 'PYMODULE'),
  ('pdb', 'm:\\software_programs\\python27\\lib\\pdb.py', 'PYMODULE'),
  ('shlex', 'm:\\software_programs\\python27\\lib\\shlex.py', 'PYMODULE'),
  ('readline',
   'm:\\software_programs\\python27\\lib\\site-packages\\readline.py',
   'PYMODULE'),
  ('pyreadline.console',
   'm:\\software_programs\\python27\\lib\\site-packages\\pyreadline\\console\\__init__.py',
   'PYMODULE'),
  ('pyreadline.console.console',
   'm:\\software_programs\\python27\\lib\\site-packages\\pyreadline\\console\\console.py',
   'PYMODULE'),
  ('_strptime',
   'm:\\software_programs\\python27\\lib\\_strptime.py',
   'PYMODULE'),
  ('calendar',
   'm:\\software_programs\\python27\\lib\\calendar.py',
   'PYMODULE'),
  ('optparse',
   'm:\\software_programs\\python27\\lib\\optparse.py',
   'PYMODULE'),
  ('gettext', 'm:\\software_programs\\python27\\lib\\gettext.py', 'PYMODULE'),
  ('tokenize',
   'm:\\software_programs\\python27\\lib\\tokenize.py',
   'PYMODULE'),
  ('token', 'm:\\software_programs\\python27\\lib\\token.py', 'PYMODULE'),
  ('textwrap',
   'm:\\software_programs\\python27\\lib\\textwrap.py',
   'PYMODULE'),
  ('locale', 'm:\\software_programs\\python27\\lib\\locale.py', 'PYMODULE'),
  ('functools',
   'm:\\software_programs\\python27\\lib\\functools.py',
   'PYMODULE'),
  ('pyreadline.console.event',
   'm:\\software_programs\\python27\\lib\\site-packages\\pyreadline\\console\\event.py',
   'PYMODULE'),
  ('ctypes.wintypes',
   'm:\\software_programs\\python27\\lib\\ctypes\\wintypes.py',
   'PYMODULE'),
  ('ctypes',
   'm:\\software_programs\\python27\\lib\\ctypes\\__init__.py',
   'PYMODULE'),
  ('ctypes._endian',
   'm:\\software_programs\\python27\\lib\\ctypes\\_endian.py',
   'PYMODULE'),
  ('ctypes.util',
   'm:\\software_programs\\python27\\lib\\ctypes\\util.py',
   'PYMODULE'),
  ('ctypes.macholib.dyld',
   'm:\\software_programs\\python27\\lib\\ctypes\\macholib\\dyld.py',
   'PYMODULE'),
  ('ctypes.macholib',
   'm:\\software_programs\\python27\\lib\\ctypes\\macholib\\__init__.py',
   'PYMODULE'),
  ('ctypes.macholib.dylib',
   'm:\\software_programs\\python27\\lib\\ctypes\\macholib\\dylib.py',
   'PYMODULE'),
  ('ctypes.macholib.framework',
   'm:\\software_programs\\python27\\lib\\ctypes\\macholib\\framework.py',
   'PYMODULE'),
  ('pyreadline.console.ansi',
   'm:\\software_programs\\python27\\lib\\site-packages\\pyreadline\\console\\ansi.py',
   'PYMODULE'),
  ('pyreadline.keysyms',
   'm:\\software_programs\\python27\\lib\\site-packages\\pyreadline\\keysyms\\__init__.py',
   'PYMODULE'),
  ('pyreadline.keysyms.keysyms',
   'm:\\software_programs\\python27\\lib\\site-packages\\pyreadline\\keysyms\\keysyms.py',
   'PYMODULE'),
  ('pyreadline.keysyms.common',
   'm:\\software_programs\\python27\\lib\\site-packages\\pyreadline\\keysyms\\common.py',
   'PYMODULE'),
  ('sets', 'm:\\software_programs\\python27\\lib\\sets.py', 'PYMODULE'),
  ('pyreadline.keysyms.ironpython_keysyms',
   'm:\\software_programs\\python27\\lib\\site-packages\\pyreadline\\keysyms\\ironpython_keysyms.py',
   'PYMODULE'),
  ('pyreadline.keysyms.winconstants',
   'm:\\software_programs\\python27\\lib\\site-packages\\pyreadline\\keysyms\\winconstants.py',
   'PYMODULE'),
  ('pyreadline.logger',
   'm:\\software_programs\\python27\\lib\\site-packages\\pyreadline\\logger.py',
   'PYMODULE'),
  ('logging.handlers',
   'm:\\software_programs\\python27\\lib\\logging\\handlers.py',
   'PYMODULE'),
  ('urllib', 'm:\\software_programs\\python27\\lib\\urllib.py', 'PYMODULE'),
  ('fnmatch', 'm:\\software_programs\\python27\\lib\\fnmatch.py', 'PYMODULE'),
  ('getpass', 'm:\\software_programs\\python27\\lib\\getpass.py', 'PYMODULE'),
  ('ftplib', 'm:\\software_programs\\python27\\lib\\ftplib.py', 'PYMODULE'),
  ('mimetools',
   'm:\\software_programs\\python27\\lib\\mimetools.py',
   'PYMODULE'),
  ('uu', 'm:\\software_programs\\python27\\lib\\uu.py', 'PYMODULE'),
  ('quopri', 'm:\\software_programs\\python27\\lib\\quopri.py', 'PYMODULE'),
  ('getopt', 'm:\\software_programs\\python27\\lib\\getopt.py', 'PYMODULE'),
  ('rfc822', 'm:\\software_programs\\python27\\lib\\rfc822.py', 'PYMODULE'),
  ('mimetypes',
   'm:\\software_programs\\python27\\lib\\mimetypes.py',
   'PYMODULE'),
  ('ssl', 'm:\\software_programs\\python27\\lib\\ssl.py', 'PYMODULE'),
  ('contextlib',
   'm:\\software_programs\\python27\\lib\\contextlib.py',
   'PYMODULE'),
  ('nturl2path',
   'm:\\software_programs\\python27\\lib\\nturl2path.py',
   'PYMODULE'),
  ('urlparse',
   'm:\\software_programs\\python27\\lib\\urlparse.py',
   'PYMODULE'),
  ('base64', 'm:\\software_programs\\python27\\lib\\base64.py', 'PYMODULE'),
  ('httplib', 'm:\\software_programs\\python27\\lib\\httplib.py', 'PYMODULE'),
  ('win32evtlogutil',
   'm:\\software_programs\\python27\\lib\\site-packages\\win32\\lib\\win32evtlogutil.py',
   'PYMODULE'),
  ('winerror',
   'm:\\software_programs\\python27\\lib\\site-packages\\win32\\lib\\winerror.py',
   'PYMODULE'),
  ('win32con',
   'm:\\software_programs\\python27\\lib\\site-packages\\win32\\lib\\win32con.py',
   'PYMODULE'),
  ('email.utils',
   'm:\\software_programs\\python27\\lib\\email\\utils.py',
   'PYMODULE'),
  ('email.encoders',
   'm:\\software_programs\\python27\\lib\\email\\encoders.py',
   'PYMODULE'),
  ('email._parseaddr',
   'm:\\software_programs\\python27\\lib\\email\\_parseaddr.py',
   'PYMODULE'),
  ('email',
   'm:\\software_programs\\python27\\lib\\email\\__init__.py',
   'PYMODULE'),
  ('email.mime',
   'm:\\software_programs\\python27\\lib\\email\\mime\\__init__.py',
   'PYMODULE'),
  ('email.parser',
   'm:\\software_programs\\python27\\lib\\email\\parser.py',
   'PYMODULE'),
  ('email.feedparser',
   'm:\\software_programs\\python27\\lib\\email\\feedparser.py',
   'PYMODULE'),
  ('email.message',
   'm:\\software_programs\\python27\\lib\\email\\message.py',
   'PYMODULE'),
  ('email.iterators',
   'm:\\software_programs\\python27\\lib\\email\\iterators.py',
   'PYMODULE'),
  ('email.generator',
   'm:\\software_programs\\python27\\lib\\email\\generator.py',
   'PYMODULE'),
  ('email.header',
   'm:\\software_programs\\python27\\lib\\email\\header.py',
   'PYMODULE'),
  ('email.base64mime',
   'm:\\software_programs\\python27\\lib\\email\\base64mime.py',
   'PYMODULE'),
  ('email.quoprimime',
   'm:\\software_programs\\python27\\lib\\email\\quoprimime.py',
   'PYMODULE'),
  ('email.charset',
   'm:\\software_programs\\python27\\lib\\email\\charset.py',
   'PYMODULE'),
  ('email.errors',
   'm:\\software_programs\\python27\\lib\\email\\errors.py',
   'PYMODULE'),
  ('smtplib', 'm:\\software_programs\\python27\\lib\\smtplib.py', 'PYMODULE'),
  ('hmac', 'm:\\software_programs\\python27\\lib\\hmac.py', 'PYMODULE'),
  ('hashlib', 'm:\\software_programs\\python27\\lib\\hashlib.py', 'PYMODULE'),
  ('stat', 'm:\\software_programs\\python27\\lib\\stat.py', 'PYMODULE'),
  ('logging',
   'm:\\software_programs\\python27\\lib\\logging\\__init__.py',
   'PYMODULE'),
  ('atexit', 'm:\\software_programs\\python27\\lib\\atexit.py', 'PYMODULE'),
  ('weakref', 'm:\\software_programs\\python27\\lib\\weakref.py', 'PYMODULE'),
  ('socket', 'm:\\software_programs\\python27\\lib\\socket.py', 'PYMODULE'),
  ('pyreadline.unicode_helper',
   'm:\\software_programs\\python27\\lib\\site-packages\\pyreadline\\unicode_helper.py',
   'PYMODULE'),
  ('pyreadline.py3k_compat',
   'm:\\software_programs\\python27\\lib\\site-packages\\pyreadline\\py3k_compat.py',
   'PYMODULE'),
  ('pyreadline.console.ironpython_console',
   'm:\\software_programs\\python27\\lib\\site-packages\\pyreadline\\console\\ironpython_console.py',
   'PYMODULE'),
  ('pyreadline',
   'm:\\software_programs\\python27\\lib\\site-packages\\pyreadline\\__init__.py',
   'PYMODULE'),
  ('pyreadline.release',
   'm:\\software_programs\\python27\\lib\\site-packages\\pyreadline\\release.py',
   'PYMODULE'),
  ('pyreadline.modes',
   'm:\\software_programs\\python27\\lib\\site-packages\\pyreadline\\modes\\__init__.py',
   'PYMODULE'),
  ('pyreadline.modes.vi',
   'm:\\software_programs\\python27\\lib\\site-packages\\pyreadline\\modes\\vi.py',
   'PYMODULE'),
  ('pyreadline.lineeditor.history',
   'm:\\software_programs\\python27\\lib\\site-packages\\pyreadline\\lineeditor\\history.py',
   'PYMODULE'),
  ('pyreadline.lineeditor.lineobj',
   'm:\\software_programs\\python27\\lib\\site-packages\\pyreadline\\lineeditor\\lineobj.py',
   'PYMODULE'),
  ('pyreadline.lineeditor.wordmatcher',
   'm:\\software_programs\\python27\\lib\\site-packages\\pyreadline\\lineeditor\\wordmatcher.py',
   'PYMODULE'),
  ('pyreadline.modes.notemacs',
   'm:\\software_programs\\python27\\lib\\site-packages\\pyreadline\\modes\\notemacs.py',
   'PYMODULE'),
  ('pyreadline.modes.emacs',
   'm:\\software_programs\\python27\\lib\\site-packages\\pyreadline\\modes\\emacs.py',
   'PYMODULE'),
  ('pyreadline.modes.basemode',
   'm:\\software_programs\\python27\\lib\\site-packages\\pyreadline\\modes\\basemode.py',
   'PYMODULE'),
  ('pyreadline.error',
   'm:\\software_programs\\python27\\lib\\site-packages\\pyreadline\\error.py',
   'PYMODULE'),
  ('pyreadline.lineeditor',
   'm:\\software_programs\\python27\\lib\\site-packages\\pyreadline\\lineeditor\\__init__.py',
   'PYMODULE'),
  ('pyreadline.clipboard',
   'm:\\software_programs\\python27\\lib\\site-packages\\pyreadline\\clipboard\\__init__.py',
   'PYMODULE'),
  ('pyreadline.clipboard.win32_clipboard',
   'm:\\software_programs\\python27\\lib\\site-packages\\pyreadline\\clipboard\\win32_clipboard.py',
   'PYMODULE'),
  ('pyreadline.clipboard.no_clipboard',
   'm:\\software_programs\\python27\\lib\\site-packages\\pyreadline\\clipboard\\no_clipboard.py',
   'PYMODULE'),
  ('pyreadline.clipboard.ironpython_clipboard',
   'm:\\software_programs\\python27\\lib\\site-packages\\pyreadline\\clipboard\\ironpython_clipboard.py',
   'PYMODULE'),
  ('glob', 'm:\\software_programs\\python27\\lib\\glob.py', 'PYMODULE'),
  ('pyreadline.rlmain',
   'm:\\software_programs\\python27\\lib\\site-packages\\pyreadline\\rlmain.py',
   'PYMODULE'),
  ('pprint', 'm:\\software_programs\\python27\\lib\\pprint.py', 'PYMODULE'),
  ('repr', 'm:\\software_programs\\python27\\lib\\repr.py', 'PYMODULE'),
  ('bdb', 'm:\\software_programs\\python27\\lib\\bdb.py', 'PYMODULE'),
  ('cmd', 'm:\\software_programs\\python27\\lib\\cmd.py', 'PYMODULE'),
  ('difflib', 'm:\\software_programs\\python27\\lib\\difflib.py', 'PYMODULE'),
  ('unittest',
   'm:\\software_programs\\python27\\lib\\unittest\\__init__.py',
   'PYMODULE'),
  ('unittest.signals',
   'm:\\software_programs\\python27\\lib\\unittest\\signals.py',
   'PYMODULE'),
  ('unittest.main',
   'm:\\software_programs\\python27\\lib\\unittest\\main.py',
   'PYMODULE'),
  ('unittest.runner',
   'm:\\software_programs\\python27\\lib\\unittest\\runner.py',
   'PYMODULE'),
  ('unittest.loader',
   'm:\\software_programs\\python27\\lib\\unittest\\loader.py',
   'PYMODULE'),
  ('unittest.suite',
   'm:\\software_programs\\python27\\lib\\unittest\\suite.py',
   'PYMODULE'),
  ('unittest.case',
   'm:\\software_programs\\python27\\lib\\unittest\\case.py',
   'PYMODULE'),
  ('unittest.result',
   'm:\\software_programs\\python27\\lib\\unittest\\result.py',
   'PYMODULE'),
  ('unittest.util',
   'm:\\software_programs\\python27\\lib\\unittest\\util.py',
   'PYMODULE'),
  ('inspect', 'm:\\software_programs\\python27\\lib\\inspect.py', 'PYMODULE'),
  ('dis', 'm:\\software_programs\\python27\\lib\\dis.py', 'PYMODULE'),
  ('opcode', 'm:\\software_programs\\python27\\lib\\opcode.py', 'PYMODULE'),
  ('__future__',
   'm:\\software_programs\\python27\\lib\\__future__.py',
   'PYMODULE'),
  ('StringIO',
   'm:\\software_programs\\python27\\lib\\StringIO.py',
   'PYMODULE'),
  ('struct', 'm:\\software_programs\\python27\\lib\\struct.py', 'PYMODULE'),
  ('threading',
   'm:\\software_programs\\python27\\lib\\threading.py',
   'PYMODULE'),
  ('_threading_local',
   'm:\\software_programs\\python27\\lib\\_threading_local.py',
   'PYMODULE'),
  ('traceback',
   'm:\\software_programs\\python27\\lib\\traceback.py',
   'PYMODULE'),
  ('UserDict',
   'm:\\software_programs\\python27\\lib\\UserDict.py',
   'PYMODULE'),
  ('os2emxpath',
   'm:\\software_programs\\python27\\lib\\os2emxpath.py',
   'PYMODULE'),
  ('genericpath',
   'm:\\software_programs\\python27\\lib\\genericpath.py',
   'PYMODULE'),
  ('ntpath', 'm:\\software_programs\\python27\\lib\\ntpath.py', 'PYMODULE'),
  ('posixpath',
   'm:\\software_programs\\python27\\lib\\posixpath.py',
   'PYMODULE'),
  ('string', 'm:\\software_programs\\python27\\lib\\string.py', 'PYMODULE'),
  ('copy', 'm:\\software_programs\\python27\\lib\\copy.py', 'PYMODULE'),
  ('copy_reg',
   'm:\\software_programs\\python27\\lib\\copy_reg.py',
   'PYMODULE'),
  ('sre_parse',
   'm:\\software_programs\\python27\\lib\\sre_parse.py',
   'PYMODULE'),
  ('sre_compile',
   'm:\\software_programs\\python27\\lib\\sre_compile.py',
   'PYMODULE'),
  ('stringprep',
   'm:\\software_programs\\python27\\lib\\stringprep.py',
   'PYMODULE'),
  ('encodings.mbcs',
   'm:\\software_programs\\python27\\lib\\encodings\\mbcs.py',
   'PYMODULE'),
  ('encodings.raw_unicode_escape',
   'm:\\software_programs\\python27\\lib\\encodings\\raw_unicode_escape.py',
   'PYMODULE'),
  ('encodings.gb18030',
   'm:\\software_programs\\python27\\lib\\encodings\\gb18030.py',
   'PYMODULE'),
  ('encodings.shift_jisx0213',
   'm:\\software_programs\\python27\\lib\\encodings\\shift_jisx0213.py',
   'PYMODULE'),
  ('encodings.ascii',
   'm:\\software_programs\\python27\\lib\\encodings\\ascii.py',
   'PYMODULE'),
  ('encodings.cp861',
   'm:\\software_programs\\python27\\lib\\encodings\\cp861.py',
   'PYMODULE'),
  ('encodings.cp860',
   'm:\\software_programs\\python27\\lib\\encodings\\cp860.py',
   'PYMODULE'),
  ('encodings.cp863',
   'm:\\software_programs\\python27\\lib\\encodings\\cp863.py',
   'PYMODULE'),
  ('encodings.cp862',
   'm:\\software_programs\\python27\\lib\\encodings\\cp862.py',
   'PYMODULE'),
  ('encodings.cp865',
   'm:\\software_programs\\python27\\lib\\encodings\\cp865.py',
   'PYMODULE'),
  ('encodings.big5hkscs',
   'm:\\software_programs\\python27\\lib\\encodings\\big5hkscs.py',
   'PYMODULE'),
  ('encodings.cp866',
   'm:\\software_programs\\python27\\lib\\encodings\\cp866.py',
   'PYMODULE'),
  ('encodings.cp869',
   'm:\\software_programs\\python27\\lib\\encodings\\cp869.py',
   'PYMODULE'),
  ('encodings.mac_latin2',
   'm:\\software_programs\\python27\\lib\\encodings\\mac_latin2.py',
   'PYMODULE'),
  ('encodings.hex_codec',
   'm:\\software_programs\\python27\\lib\\encodings\\hex_codec.py',
   'PYMODULE'),
  ('encodings.cp950',
   'm:\\software_programs\\python27\\lib\\encodings\\cp950.py',
   'PYMODULE'),
  ('encodings.quopri_codec',
   'm:\\software_programs\\python27\\lib\\encodings\\quopri_codec.py',
   'PYMODULE'),
  ('encodings.utf_32_be',
   'm:\\software_programs\\python27\\lib\\encodings\\utf_32_be.py',
   'PYMODULE'),
  ('encodings.string_escape',
   'm:\\software_programs\\python27\\lib\\encodings\\string_escape.py',
   'PYMODULE'),
  ('encodings.cp1250',
   'm:\\software_programs\\python27\\lib\\encodings\\cp1250.py',
   'PYMODULE'),
  ('encodings.cp1251',
   'm:\\software_programs\\python27\\lib\\encodings\\cp1251.py',
   'PYMODULE'),
  ('encodings.cp1252',
   'm:\\software_programs\\python27\\lib\\encodings\\cp1252.py',
   'PYMODULE'),
  ('encodings.cp1253',
   'm:\\software_programs\\python27\\lib\\encodings\\cp1253.py',
   'PYMODULE'),
  ('encodings.cp1254',
   'm:\\software_programs\\python27\\lib\\encodings\\cp1254.py',
   'PYMODULE'),
  ('encodings.cp1255',
   'm:\\software_programs\\python27\\lib\\encodings\\cp1255.py',
   'PYMODULE'),
  ('encodings.cp1256',
   'm:\\software_programs\\python27\\lib\\encodings\\cp1256.py',
   'PYMODULE'),
  ('encodings.cp1257',
   'm:\\software_programs\\python27\\lib\\encodings\\cp1257.py',
   'PYMODULE'),
  ('encodings.cp1258',
   'm:\\software_programs\\python27\\lib\\encodings\\cp1258.py',
   'PYMODULE'),
  ('encodings.euc_jp',
   'm:\\software_programs\\python27\\lib\\encodings\\euc_jp.py',
   'PYMODULE'),
  ('encodings.hz',
   'm:\\software_programs\\python27\\lib\\encodings\\hz.py',
   'PYMODULE'),
  ('encodings.mac_cyrillic',
   'm:\\software_programs\\python27\\lib\\encodings\\mac_cyrillic.py',
   'PYMODULE'),
  ('encodings.iso2022_kr',
   'm:\\software_programs\\python27\\lib\\encodings\\iso2022_kr.py',
   'PYMODULE'),
  ('encodings.unicode_internal',
   'm:\\software_programs\\python27\\lib\\encodings\\unicode_internal.py',
   'PYMODULE'),
  ('encodings.cp500',
   'm:\\software_programs\\python27\\lib\\encodings\\cp500.py',
   'PYMODULE'),
  ('encodings.iso8859_10',
   'm:\\software_programs\\python27\\lib\\encodings\\iso8859_10.py',
   'PYMODULE'),
  ('encodings.iso8859_11',
   'm:\\software_programs\\python27\\lib\\encodings\\iso8859_11.py',
   'PYMODULE'),
  ('encodings.iso8859_13',
   'm:\\software_programs\\python27\\lib\\encodings\\iso8859_13.py',
   'PYMODULE'),
  ('encodings.iso8859_14',
   'm:\\software_programs\\python27\\lib\\encodings\\iso8859_14.py',
   'PYMODULE'),
  ('encodings.cp424',
   'm:\\software_programs\\python27\\lib\\encodings\\cp424.py',
   'PYMODULE'),
  ('encodings.iso8859_16',
   'm:\\software_programs\\python27\\lib\\encodings\\iso8859_16.py',
   'PYMODULE'),
  ('encodings.cp1006',
   'm:\\software_programs\\python27\\lib\\encodings\\cp1006.py',
   'PYMODULE'),
  ('encodings.hp_roman8',
   'm:\\software_programs\\python27\\lib\\encodings\\hp_roman8.py',
   'PYMODULE'),
  ('encodings.charmap',
   'm:\\software_programs\\python27\\lib\\encodings\\charmap.py',
   'PYMODULE'),
  ('encodings.utf_32',
   'm:\\software_programs\\python27\\lib\\encodings\\utf_32.py',
   'PYMODULE'),
  ('encodings.latin_1',
   'm:\\software_programs\\python27\\lib\\encodings\\latin_1.py',
   'PYMODULE'),
  ('encodings.utf_16_be',
   'm:\\software_programs\\python27\\lib\\encodings\\utf_16_be.py',
   'PYMODULE'),
  ('encodings.cp737',
   'm:\\software_programs\\python27\\lib\\encodings\\cp737.py',
   'PYMODULE'),
  ('encodings.utf_16',
   'm:\\software_programs\\python27\\lib\\encodings\\utf_16.py',
   'PYMODULE'),
  ('encodings.cp437',
   'm:\\software_programs\\python27\\lib\\encodings\\cp437.py',
   'PYMODULE'),
  ('encodings.mac_roman',
   'm:\\software_programs\\python27\\lib\\encodings\\mac_roman.py',
   'PYMODULE'),
  ('encodings.mac_centeuro',
   'm:\\software_programs\\python27\\lib\\encodings\\mac_centeuro.py',
   'PYMODULE'),
  ('encodings.mac_croatian',
   'm:\\software_programs\\python27\\lib\\encodings\\mac_croatian.py',
   'PYMODULE'),
  ('encodings.punycode',
   'm:\\software_programs\\python27\\lib\\encodings\\punycode.py',
   'PYMODULE'),
  ('encodings.unicode_escape',
   'm:\\software_programs\\python27\\lib\\encodings\\unicode_escape.py',
   'PYMODULE'),
  ('encodings.bz2_codec',
   'm:\\software_programs\\python27\\lib\\encodings\\bz2_codec.py',
   'PYMODULE'),
  ('encodings.rot_13',
   'm:\\software_programs\\python27\\lib\\encodings\\rot_13.py',
   'PYMODULE'),
  ('encodings.cp874',
   'm:\\software_programs\\python27\\lib\\encodings\\cp874.py',
   'PYMODULE'),
  ('encodings.cp875',
   'm:\\software_programs\\python27\\lib\\encodings\\cp875.py',
   'PYMODULE'),
  ('encodings.cp720',
   'm:\\software_programs\\python27\\lib\\encodings\\cp720.py',
   'PYMODULE'),
  ('encodings.tis_620',
   'm:\\software_programs\\python27\\lib\\encodings\\tis_620.py',
   'PYMODULE'),
  ('encodings.zlib_codec',
   'm:\\software_programs\\python27\\lib\\encodings\\zlib_codec.py',
   'PYMODULE'),
  ('encodings.iso2022_jp_2004',
   'm:\\software_programs\\python27\\lib\\encodings\\iso2022_jp_2004.py',
   'PYMODULE'),
  ('encodings.euc_jisx0213',
   'm:\\software_programs\\python27\\lib\\encodings\\euc_jisx0213.py',
   'PYMODULE'),
  ('encodings.ptcp154',
   'm:\\software_programs\\python27\\lib\\encodings\\ptcp154.py',
   'PYMODULE'),
  ('encodings.uu_codec',
   'm:\\software_programs\\python27\\lib\\encodings\\uu_codec.py',
   'PYMODULE'),
  ('encodings.utf_16_le',
   'm:\\software_programs\\python27\\lib\\encodings\\utf_16_le.py',
   'PYMODULE'),
  ('encodings.iso2022_jp_2',
   'm:\\software_programs\\python27\\lib\\encodings\\iso2022_jp_2.py',
   'PYMODULE'),
  ('encodings.iso2022_jp_3',
   'm:\\software_programs\\python27\\lib\\encodings\\iso2022_jp_3.py',
   'PYMODULE'),
  ('encodings.iso2022_jp_1',
   'm:\\software_programs\\python27\\lib\\encodings\\iso2022_jp_1.py',
   'PYMODULE'),
  ('encodings.mac_romanian',
   'm:\\software_programs\\python27\\lib\\encodings\\mac_romanian.py',
   'PYMODULE'),
  ('encodings.cp1026',
   'm:\\software_programs\\python27\\lib\\encodings\\cp1026.py',
   'PYMODULE'),
  ('encodings.mac_farsi',
   'm:\\software_programs\\python27\\lib\\encodings\\mac_farsi.py',
   'PYMODULE'),
  ('encodings.undefined',
   'm:\\software_programs\\python27\\lib\\encodings\\undefined.py',
   'PYMODULE'),
  ('encodings.mac_turkish',
   'm:\\software_programs\\python27\\lib\\encodings\\mac_turkish.py',
   'PYMODULE'),
  ('encodings.koi8_u',
   'm:\\software_programs\\python27\\lib\\encodings\\koi8_u.py',
   'PYMODULE'),
  ('encodings.koi8_r',
   'm:\\software_programs\\python27\\lib\\encodings\\koi8_r.py',
   'PYMODULE'),
  ('encodings.utf_8_sig',
   'm:\\software_programs\\python27\\lib\\encodings\\utf_8_sig.py',
   'PYMODULE'),
  ('encodings.iso2022_jp',
   'm:\\software_programs\\python27\\lib\\encodings\\iso2022_jp.py',
   'PYMODULE'),
  ('encodings.palmos',
   'm:\\software_programs\\python27\\lib\\encodings\\palmos.py',
   'PYMODULE'),
  ('encodings.mac_greek',
   'm:\\software_programs\\python27\\lib\\encodings\\mac_greek.py',
   'PYMODULE'),
  ('encodings.shift_jis_2004',
   'm:\\software_programs\\python27\\lib\\encodings\\shift_jis_2004.py',
   'PYMODULE'),
  ('encodings.gbk',
   'm:\\software_programs\\python27\\lib\\encodings\\gbk.py',
   'PYMODULE'),
  ('encodings.mac_iceland',
   'm:\\software_programs\\python27\\lib\\encodings\\mac_iceland.py',
   'PYMODULE'),
  ('encodings.cp858',
   'm:\\software_programs\\python27\\lib\\encodings\\cp858.py',
   'PYMODULE'),
  ('encodings.cp850',
   'm:\\software_programs\\python27\\lib\\encodings\\cp850.py',
   'PYMODULE'),
  ('encodings.cp852',
   'm:\\software_programs\\python27\\lib\\encodings\\cp852.py',
   'PYMODULE'),
  ('encodings.cp855',
   'm:\\software_programs\\python27\\lib\\encodings\\cp855.py',
   'PYMODULE'),
  ('encodings.cp856',
   'm:\\software_programs\\python27\\lib\\encodings\\cp856.py',
   'PYMODULE'),
  ('encodings.cp857',
   'm:\\software_programs\\python27\\lib\\encodings\\cp857.py',
   'PYMODULE'),
  ('encodings.iso8859_4',
   'm:\\software_programs\\python27\\lib\\encodings\\iso8859_4.py',
   'PYMODULE'),
  ('encodings.iso8859_5',
   'm:\\software_programs\\python27\\lib\\encodings\\iso8859_5.py',
   'PYMODULE'),
  ('encodings.iso8859_6',
   'm:\\software_programs\\python27\\lib\\encodings\\iso8859_6.py',
   'PYMODULE'),
  ('encodings.iso8859_7',
   'm:\\software_programs\\python27\\lib\\encodings\\iso8859_7.py',
   'PYMODULE'),
  ('encodings.iso8859_1',
   'm:\\software_programs\\python27\\lib\\encodings\\iso8859_1.py',
   'PYMODULE'),
  ('encodings.iso8859_2',
   'm:\\software_programs\\python27\\lib\\encodings\\iso8859_2.py',
   'PYMODULE'),
  ('encodings.iso8859_3',
   'm:\\software_programs\\python27\\lib\\encodings\\iso8859_3.py',
   'PYMODULE'),
  ('encodings.gb2312',
   'm:\\software_programs\\python27\\lib\\encodings\\gb2312.py',
   'PYMODULE'),
  ('encodings.iso8859_8',
   'm:\\software_programs\\python27\\lib\\encodings\\iso8859_8.py',
   'PYMODULE'),
  ('encodings.iso8859_9',
   'm:\\software_programs\\python27\\lib\\encodings\\iso8859_9.py',
   'PYMODULE'),
  ('encodings.cp949',
   'm:\\software_programs\\python27\\lib\\encodings\\cp949.py',
   'PYMODULE'),
  ('encodings.cp864',
   'm:\\software_programs\\python27\\lib\\encodings\\cp864.py',
   'PYMODULE'),
  ('encodings.base64_codec',
   'm:\\software_programs\\python27\\lib\\encodings\\base64_codec.py',
   'PYMODULE'),
  ('encodings.cp037',
   'm:\\software_programs\\python27\\lib\\encodings\\cp037.py',
   'PYMODULE'),
  ('encodings.utf_8',
   'm:\\software_programs\\python27\\lib\\encodings\\utf_8.py',
   'PYMODULE'),
  ('encodings.mac_arabic',
   'm:\\software_programs\\python27\\lib\\encodings\\mac_arabic.py',
   'PYMODULE'),
  ('encodings.euc_kr',
   'm:\\software_programs\\python27\\lib\\encodings\\euc_kr.py',
   'PYMODULE'),
  ('encodings.utf_7',
   'm:\\software_programs\\python27\\lib\\encodings\\utf_7.py',
   'PYMODULE'),
  ('encodings.shift_jis',
   'm:\\software_programs\\python27\\lib\\encodings\\shift_jis.py',
   'PYMODULE'),
  ('encodings.utf_32_le',
   'm:\\software_programs\\python27\\lib\\encodings\\utf_32_le.py',
   'PYMODULE'),
  ('encodings.euc_jis_2004',
   'm:\\software_programs\\python27\\lib\\encodings\\euc_jis_2004.py',
   'PYMODULE'),
  ('encodings.cp775',
   'm:\\software_programs\\python27\\lib\\encodings\\cp775.py',
   'PYMODULE'),
  ('encodings.cp1140',
   'm:\\software_programs\\python27\\lib\\encodings\\cp1140.py',
   'PYMODULE'),
  ('encodings.big5',
   'm:\\software_programs\\python27\\lib\\encodings\\big5.py',
   'PYMODULE'),
  ('encodings.iso8859_15',
   'm:\\software_programs\\python27\\lib\\encodings\\iso8859_15.py',
   'PYMODULE'),
  ('encodings.iso2022_jp_ext',
   'm:\\software_programs\\python27\\lib\\encodings\\iso2022_jp_ext.py',
   'PYMODULE'),
  ('encodings.johab',
   'm:\\software_programs\\python27\\lib\\encodings\\johab.py',
   'PYMODULE'),
  ('encodings.cp932',
   'm:\\software_programs\\python27\\lib\\encodings\\cp932.py',
   'PYMODULE'),
  ('codecs', 'm:\\software_programs\\python27\\lib\\codecs.py', 'PYMODULE'),
  ('random', 'm:\\software_programs\\python27\\lib\\random.py', 'PYMODULE')],
 [(u'Microsoft.VC90.CRT.manifest',
   u'C:\\Windows\\WinSxS\\Manifests\\x86_microsoft.vc90.crt_1fc8b3b9a1e18e3b_9.0.21022.123_none_34ecb028277b0621.manifest',
   'BINARY'),
  (u'msvcr90.dll',
   u'C:\\Windows\\WinSxS\\x86_microsoft.vc90.crt_1fc8b3b9a1e18e3b_9.0.21022.123_none_34ecb028277b0621\\msvcr90.dll',
   'BINARY'),
  (u'msvcp90.dll',
   u'C:\\Windows\\WinSxS\\x86_microsoft.vc90.crt_1fc8b3b9a1e18e3b_9.0.21022.123_none_34ecb028277b0621\\msvcp90.dll',
   'BINARY'),
  (u'msvcm90.dll',
   u'C:\\Windows\\WinSxS\\x86_microsoft.vc90.crt_1fc8b3b9a1e18e3b_9.0.21022.123_none_34ecb028277b0621\\msvcm90.dll',
   'BINARY'),
  ('python27.dll', 'm:\\software_programs\\python27\\python27.dll', 'BINARY'),
  ('unicodedata',
   'm:\\software_programs\\python27\\DLLs\\unicodedata.pyd',
   'EXTENSION'),
  ('_ctypes',
   'm:\\software_programs\\python27\\DLLs\\_ctypes.pyd',
   'EXTENSION'),
  ('_ssl', 'm:\\software_programs\\python27\\DLLs\\_ssl.pyd', 'EXTENSION'),
  ('win32evtlog',
   'm:\\software_programs\\python27\\lib\\site-packages\\win32\\win32evtlog.pyd',
   'EXTENSION'),
  ('win32api',
   'm:\\software_programs\\python27\\lib\\site-packages\\win32\\win32api.pyd',
   'EXTENSION'),
  ('_hashlib',
   'm:\\software_programs\\python27\\DLLs\\_hashlib.pyd',
   'EXTENSION'),
  ('_socket',
   'm:\\software_programs\\python27\\DLLs\\_socket.pyd',
   'EXTENSION'),
  ('select',
   'm:\\software_programs\\python27\\DLLs\\select.pyd',
   'EXTENSION'),
  ('bz2', 'm:\\software_programs\\python27\\DLLs\\bz2.pyd', 'EXTENSION'),
  ('pywintypes27.dll',
   'm:\\software_programs\\python27\\lib\\site-packages\\pywin32_system32\\pywintypes27.dll',
   'BINARY')],
 [],
 [],
 [],
 [BindingRedirect(name=u'Microsoft.VC90.CRT', language=None, arch=u'x86', oldVersion=(9, 0, 21022, 8), newVersion=(9, 0, 21022, 123), publicKeyToken=u'1fc8b3b9a1e18e3b')])
