('M:\\QEHB_Clinical_Support\\Neuro\\fMRI\\ITM-Paradigms-20180807\\ITM-Memory '
 'SceneEncoding\\build\\generate_slides\\PKG-00.pkg',
 {'BINARY': 1,
  'DATA': 1,
  'EXECUTABLE': 1,
  'EXTENSION': 1,
  'PYMODULE': 1,
  'PYSOURCE': 1,
  'PYZ': 0},
 [('PYZ-00.pyz',
   'M:\\QEHB_Clinical_Support\\Neuro\\fMRI\\ITM-Paradigms-20180807\\ITM-Memory '
   'SceneEncoding\\build\\generate_slides\\PYZ-00.pyz',
   'PYZ'),
  ('struct',
   'c:\\users\\rtfm\\appdata\\local\\programs\\python\\python37-32\\lib\\struct.pyo',
   'PYMODULE'),
  ('pyimod01_os_path',
   'c:\\users\\rtfm\\appdata\\local\\programs\\python\\python37-32\\lib\\site-packages\\PyInstaller\\loader\\pyimod01_os_path.pyc',
   'PYMODULE'),
  ('pyimod02_archive',
   'c:\\users\\rtfm\\appdata\\local\\programs\\python\\python37-32\\lib\\site-packages\\PyInstaller\\loader\\pyimod02_archive.pyc',
   'PYMODULE'),
  ('pyimod03_importers',
   'c:\\users\\rtfm\\appdata\\local\\programs\\python\\python37-32\\lib\\site-packages\\PyInstaller\\loader\\pyimod03_importers.pyc',
   'PYMODULE'),
  ('pyiboot01_bootstrap',
   'c:\\users\\rtfm\\appdata\\local\\programs\\python\\python37-32\\lib\\site-packages\\PyInstaller\\loader\\pyiboot01_bootstrap.py',
   'PYSOURCE'),
  ('generate_slides',
   'M:\\QEHB_Clinical_Support\\Neuro\\fMRI\\ITM-Paradigms-20180807\\ITM-Memory '
   'SceneEncoding\\generate_slides.py',
   'PYSOURCE'),
  ('api-ms-win-crt-runtime-l1-1-0.dll',
   'C:\\Windows\\system32\\api-ms-win-crt-runtime-l1-1-0.dll',
   'BINARY'),
  ('api-ms-win-crt-locale-l1-1-0.dll',
   'C:\\Windows\\system32\\api-ms-win-crt-locale-l1-1-0.dll',
   'BINARY'),
  ('api-ms-win-crt-heap-l1-1-0.dll',
   'C:\\Windows\\system32\\api-ms-win-crt-heap-l1-1-0.dll',
   'BINARY'),
  ('VCRUNTIME140.dll',
   'c:\\users\\rtfm\\appdata\\local\\programs\\python\\python37-32\\VCRUNTIME140.dll',
   'BINARY'),
  ('python37.dll',
   'c:\\users\\rtfm\\appdata\\local\\programs\\python\\python37-32\\python37.dll',
   'BINARY'),
  ('api-ms-win-crt-math-l1-1-0.dll',
   'C:\\Windows\\system32\\api-ms-win-crt-math-l1-1-0.dll',
   'BINARY'),
  ('api-ms-win-crt-stdio-l1-1-0.dll',
   'C:\\Windows\\system32\\api-ms-win-crt-stdio-l1-1-0.dll',
   'BINARY'),
  ('ucrtbase.dll', 'C:\\Windows\\system32\\ucrtbase.dll', 'BINARY'),
  ('api-ms-win-crt-convert-l1-1-0.dll',
   'C:\\Windows\\system32\\api-ms-win-crt-convert-l1-1-0.dll',
   'BINARY'),
  ('api-ms-win-crt-string-l1-1-0.dll',
   'C:\\Windows\\system32\\api-ms-win-crt-string-l1-1-0.dll',
   'BINARY'),
  ('api-ms-win-crt-time-l1-1-0.dll',
   'C:\\Windows\\system32\\api-ms-win-crt-time-l1-1-0.dll',
   'BINARY'),
  ('api-ms-win-crt-environment-l1-1-0.dll',
   'C:\\Windows\\system32\\api-ms-win-crt-environment-l1-1-0.dll',
   'BINARY'),
  ('api-ms-win-crt-process-l1-1-0.dll',
   'C:\\Windows\\system32\\api-ms-win-crt-process-l1-1-0.dll',
   'BINARY'),
  ('api-ms-win-crt-filesystem-l1-1-0.dll',
   'C:\\Windows\\system32\\api-ms-win-crt-filesystem-l1-1-0.dll',
   'BINARY'),
  ('api-ms-win-crt-conio-l1-1-0.dll',
   'C:\\Windows\\system32\\api-ms-win-crt-conio-l1-1-0.dll',
   'BINARY'),
  ('api-ms-win-core-processthreads-l1-1-0.dll',
   'C:\\Windows\\system32\\api-ms-win-core-processthreads-l1-1-0.dll',
   'BINARY'),
  ('api-ms-win-core-sysinfo-l1-1-0.dll',
   'C:\\Windows\\system32\\api-ms-win-core-sysinfo-l1-1-0.dll',
   'BINARY'),
  ('api-ms-win-core-interlocked-l1-1-0.dll',
   'C:\\Windows\\system32\\api-ms-win-core-interlocked-l1-1-0.dll',
   'BINARY'),
  ('api-ms-win-core-file-l1-2-0.dll',
   'C:\\Windows\\system32\\api-ms-win-core-file-l1-2-0.dll',
   'BINARY'),
  ('api-ms-win-core-handle-l1-1-0.dll',
   'C:\\Windows\\system32\\api-ms-win-core-handle-l1-1-0.dll',
   'BINARY'),
  ('api-ms-win-core-profile-l1-1-0.dll',
   'C:\\Windows\\system32\\api-ms-win-core-profile-l1-1-0.dll',
   'BINARY'),
  ('api-ms-win-core-memory-l1-1-0.dll',
   'C:\\Windows\\system32\\api-ms-win-core-memory-l1-1-0.dll',
   'BINARY'),
  ('api-ms-win-core-errorhandling-l1-1-0.dll',
   'C:\\Windows\\system32\\api-ms-win-core-errorhandling-l1-1-0.dll',
   'BINARY'),
  ('api-ms-win-core-synch-l1-2-0.dll',
   'C:\\Windows\\system32\\api-ms-win-core-synch-l1-2-0.dll',
   'BINARY'),
  ('api-ms-win-core-datetime-l1-1-0.dll',
   'C:\\Windows\\system32\\api-ms-win-core-datetime-l1-1-0.dll',
   'BINARY'),
  ('api-ms-win-core-file-l1-1-0.dll',
   'C:\\Windows\\system32\\api-ms-win-core-file-l1-1-0.dll',
   'BINARY'),
  ('api-ms-win-core-localization-l1-2-0.dll',
   'C:\\Windows\\system32\\api-ms-win-core-localization-l1-2-0.dll',
   'BINARY'),
  ('api-ms-win-core-console-l1-1-0.dll',
   'C:\\Windows\\system32\\api-ms-win-core-console-l1-1-0.dll',
   'BINARY'),
  ('api-ms-win-core-timezone-l1-1-0.dll',
   'C:\\Windows\\system32\\api-ms-win-core-timezone-l1-1-0.dll',
   'BINARY'),
  ('api-ms-win-core-processenvironment-l1-1-0.dll',
   'C:\\Windows\\system32\\api-ms-win-core-processenvironment-l1-1-0.dll',
   'BINARY'),
  ('api-ms-win-core-debug-l1-1-0.dll',
   'C:\\Windows\\system32\\api-ms-win-core-debug-l1-1-0.dll',
   'BINARY'),
  ('api-ms-win-core-synch-l1-1-0.dll',
   'C:\\Windows\\system32\\api-ms-win-core-synch-l1-1-0.dll',
   'BINARY'),
  ('api-ms-win-core-file-l2-1-0.dll',
   'C:\\Windows\\system32\\api-ms-win-core-file-l2-1-0.dll',
   'BINARY'),
  ('api-ms-win-core-namedpipe-l1-1-0.dll',
   'C:\\Windows\\system32\\api-ms-win-core-namedpipe-l1-1-0.dll',
   'BINARY'),
  ('api-ms-win-core-rtlsupport-l1-1-0.dll',
   'C:\\Windows\\system32\\api-ms-win-core-rtlsupport-l1-1-0.dll',
   'BINARY'),
  ('api-ms-win-core-libraryloader-l1-1-0.dll',
   'C:\\Windows\\system32\\api-ms-win-core-libraryloader-l1-1-0.dll',
   'BINARY'),
  ('api-ms-win-core-util-l1-1-0.dll',
   'C:\\Windows\\system32\\api-ms-win-core-util-l1-1-0.dll',
   'BINARY'),
  ('api-ms-win-core-heap-l1-1-0.dll',
   'C:\\Windows\\system32\\api-ms-win-core-heap-l1-1-0.dll',
   'BINARY'),
  ('api-ms-win-core-processthreads-l1-1-1.dll',
   'C:\\Windows\\system32\\api-ms-win-core-processthreads-l1-1-1.dll',
   'BINARY'),
  ('api-ms-win-core-string-l1-1-0.dll',
   'C:\\Windows\\system32\\api-ms-win-core-string-l1-1-0.dll',
   'BINARY'),
  ('_ssl',
   'c:\\users\\rtfm\\appdata\\local\\programs\\python\\python37-32\\DLLs\\_ssl.pyd',
   'EXTENSION'),
  ('unicodedata',
   'c:\\users\\rtfm\\appdata\\local\\programs\\python\\python37-32\\DLLs\\unicodedata.pyd',
   'EXTENSION'),
  ('_queue',
   'c:\\users\\rtfm\\appdata\\local\\programs\\python\\python37-32\\DLLs\\_queue.pyd',
   'EXTENSION'),
  ('_ctypes',
   'c:\\users\\rtfm\\appdata\\local\\programs\\python\\python37-32\\DLLs\\_ctypes.pyd',
   'EXTENSION'),
  ('pyexpat',
   'c:\\users\\rtfm\\appdata\\local\\programs\\python\\python37-32\\DLLs\\pyexpat.pyd',
   'EXTENSION'),
  ('_hashlib',
   'c:\\users\\rtfm\\appdata\\local\\programs\\python\\python37-32\\DLLs\\_hashlib.pyd',
   'EXTENSION'),
  ('select',
   'c:\\users\\rtfm\\appdata\\local\\programs\\python\\python37-32\\DLLs\\select.pyd',
   'EXTENSION'),
  ('_bz2',
   'c:\\users\\rtfm\\appdata\\local\\programs\\python\\python37-32\\DLLs\\_bz2.pyd',
   'EXTENSION'),
  ('_lzma',
   'c:\\users\\rtfm\\appdata\\local\\programs\\python\\python37-32\\DLLs\\_lzma.pyd',
   'EXTENSION'),
  ('_socket',
   'c:\\users\\rtfm\\appdata\\local\\programs\\python\\python37-32\\DLLs\\_socket.pyd',
   'EXTENSION'),
  ('libssl-1_1.dll',
   'c:\\users\\rtfm\\appdata\\local\\programs\\python\\python37-32\\DLLs\\libssl-1_1.dll',
   'BINARY'),
  ('libcrypto-1_1.dll',
   'c:\\users\\rtfm\\appdata\\local\\programs\\python\\python37-32\\DLLs\\libcrypto-1_1.dll',
   'BINARY'),
  ('api-ms-win-crt-utility-l1-1-0.dll',
   'C:\\Windows\\system32\\api-ms-win-crt-utility-l1-1-0.dll',
   'BINARY'),
  ('base_library.zip',
   'M:\\QEHB_Clinical_Support\\Neuro\\fMRI\\ITM-Paradigms-20180807\\ITM-Memory '
   'SceneEncoding\\build\\generate_slides\\base_library.zip',
   'DATA'),
  ('generate_slides.exe.manifest',
   'M:\\QEHB_Clinical_Support\\Neuro\\fMRI\\ITM-Paradigms-20180807\\ITM-Memory '
   'SceneEncoding\\build\\generate_slides\\generate_slides.exe.manifest',
   'BINARY'),
  ('pyi-windows-manifest-filename generate_slides.exe.manifest', '', 'OPTION')],
 False,
 False,
 False)
